\relax 
\providecommand\hyper@newdestlabel[2]{}
\providecommand\BKM@entry[2]{}
\providecommand*{\memsetcounter}[2]{}
\providecommand\HyperFirstAtBeginDocument{\AtBeginDocument}
\HyperFirstAtBeginDocument{\ifx\hyper@anchor\@undefined
\global\let\oldcontentsline\contentsline
\gdef\contentsline#1#2#3#4{\oldcontentsline{#1}{#2}{#3}}
\global\let\oldnewlabel\newlabel
\gdef\newlabel#1#2{\newlabelxx{#1}#2}
\gdef\newlabelxx#1#2#3#4#5#6{\oldnewlabel{#1}{{#2}{#3}}}
\AtEndDocument{\ifx\hyper@anchor\@undefined
\let\contentsline\oldcontentsline
\let\newlabel\oldnewlabel
\fi}
\fi}
\global\let\hyper@last\relax 
\gdef\HyperFirstAtBeginDocument#1{#1}
\providecommand\HyField@AuxAddToFields[1]{}
\providecommand\HyField@AuxAddToCoFields[2]{}
\catcode `"\active 
\citation{abnt-url-package=url}
\citation{abnt-emphasize=bf}
\@writefile{toc}{\changetocdepth  {4}}
\providecommand\@newglossary[4]{}
\@newglossary{main}{glg}{gls}{glo}
\babel@aux{brazil}{}
\BKM@entry{id=1,dest={6368617074657262312E30},srcline={2}}{446564696361745C333633726961}
\BKM@entry{id=2,dest={6368617074657262332E30},srcline={2}}{41677261646563696D656E746F73}
\@writefile{toc}{\setlength  {\cftchapterindent }{\cftlastnumwidth } \setlength  {\cftchapternumwidth }{2em}}
\BKM@entry{id=3,dest={6368617074657262342E30},srcline={2}}{45705C3335356772616665}
\BKM@entry{id=4,dest={6368617074657262352E30},srcline={2}}{526573756D6F}
\BKM@entry{id=5,dest={6368617074657262362E30},srcline={1}}{4162737472616374}
\BKM@entry{id=6,dest={6C6F662E30},srcline={95}}{4C6973746120646520696C75737472615C3334375C3336356573}
\@writefile{toc}{\setlength  {\cftchapterindent }{\cftlastnumwidth } \setlength  {\cftchapternumwidth }{2em}}
\BKM@entry{id=7,dest={6C6F6C2E30},srcline={103}}{4C6973746120646520435C3336336469676F73}
\@writefile{toc}{\setlength  {\cftchapterindent }{\cftlastnumwidth } \setlength  {\cftchapternumwidth }{2em}}
\BKM@entry{id=8,dest={6C6F742E30},srcline={113}}{4C6973746120646520746162656C6173}
\@writefile{toc}{\setlength  {\cftchapterindent }{\cftlastnumwidth } \setlength  {\cftchapternumwidth }{2em}}
\BKM@entry{id=9,dest={6368617074657262382E30},srcline={1}}{4C69737461206465206162726576696174757261732065207369676C6173}
\@writefile{toc}{\setlength  {\cftchapterindent }{\cftlastnumwidth } \setlength  {\cftchapternumwidth }{2em}}
\BKM@entry{id=10,dest={746F632E30},srcline={145}}{53756D5C33343172696F}
\@writefile{toc}{\setlength  {\cftchapterindent }{\cftlastnumwidth } \setlength  {\cftchapternumwidth }{2em}}
\BKM@entry{id=11,dest={636861707465722E31},srcline={2}}{494E54524F44555C3330375C3330334F}
\BKM@entry{id=12,dest={73656374696F6E2E312E31},srcline={4}}{4D6F746976615C3334375C3334336F2065206F626A657469766F73}
\citation{url:CES}
\BKM@entry{id=13,dest={73656374696F6E2E312E32},srcline={11}}{54726162616C686F732072656C6163696F6E61646F73}
\BKM@entry{id=14,dest={73756273656374696F6E2E312E322E31},srcline={14}}{4769676174726F6E}
\citation{url:Gigatron}
\@writefile{toc}{\setlength  {\cftchapterindent }{0em} \setlength  {\cftchapternumwidth }{\cftlastnumwidth }}
\@writefile{toc}{\contentsline {chapter}{\chapternumberline {1}\MakeTextUppercase  {INTRODU\IeC {\c C}\IeC {\~A}O}}{15}{chapter.1}\protected@file@percent }
\@writefile{toc}{\contentsline {section}{\numberline {1.1}Motiva\IeC {\c c}\IeC {\~a}o e objetivos}{15}{section.1.1}\protected@file@percent }
\@writefile{toc}{\contentsline {section}{\numberline {1.2}Trabalhos relacionados}{15}{section.1.2}\protected@file@percent }
\@writefile{toc}{\contentsline {subsection}{\numberline {1.2.1}Gigatron}{15}{subsection.1.2.1}\protected@file@percent }
\BKM@entry{id=15,dest={73756273656374696F6E2E312E322E32},srcline={21}}{42656E204561746572}
\citation{url:BenEater}
\BKM@entry{id=16,dest={73756273656374696F6E2E312E322E33},srcline={26}}{647265616D63617463686572}
\citation{url:DreamCatcher}
\citation{url:DreamCatcherGit}
\BKM@entry{id=17,dest={73656374696F6E2E312E33},srcline={31}}{457374727574757261206461206D6F6E6F677261666961}
\@writefile{toc}{\contentsline {subsection}{\numberline {1.2.2}Ben Eater}{16}{subsection.1.2.2}\protected@file@percent }
\@writefile{toc}{\contentsline {subsection}{\numberline {1.2.3}dreamcatcher}{16}{subsection.1.2.3}\protected@file@percent }
\@writefile{toc}{\contentsline {section}{\numberline {1.3}Estrutura da monografia}{16}{section.1.3}\protected@file@percent }
\BKM@entry{id=18,dest={636861707465722E32},srcline={1}}{4345533A20434F4D50555441444F522045585452454D414D454E54452053494D504C4553}
\citation{url:CES}
\BKM@entry{id=19,dest={73656374696F6E2E322E31},srcline={5}}{496E737472755C3334375C3336356573}
\BKM@entry{id=20,dest={73656374696F6E2E322E32},srcline={18}}{5265676973747261646F726573}
\@writefile{toc}{\setlength  {\cftchapterindent }{0em} \setlength  {\cftchapternumwidth }{\cftlastnumwidth }}
\@writefile{toc}{\contentsline {chapter}{\chapternumberline {2}\MakeTextUppercase  {CES: COMPUTADOR EXTREMAMENTE SIMPLES}}{17}{chapter.2}\protected@file@percent }
\newlabel{chp:ces}{{\M@TitleReference {2}{\MakeTextUppercase  {CES: COMPUTADOR EXTREMAMENTE SIMPLES}}}{17}{CES: COMPUTADOR EXTREMAMENTE SIMPLES}{chapter.2}{}}
\@writefile{toc}{\contentsline {section}{\numberline {2.1}Instru\IeC {\c c}\IeC {\~o}es}{17}{section.2.1}\protected@file@percent }
\@writefile{toc}{\contentsline {section}{\numberline {2.2}Registradores}{17}{section.2.2}\protected@file@percent }
\BKM@entry{id=21,dest={73656374696F6E2E322E33},srcline={36}}{556E6964616465204C5C33363367696361206520417269746D5C33353174696361}
\BKM@entry{id=22,dest={73656374696F6E2E322E34},srcline={39}}{45786563755C3334375C3334336F2064617320696E737472755C3334375C3336356573}
\@writefile{toc}{\contentsline {section}{\numberline {2.3}Unidade L\IeC {\'o}gica e Aritm\IeC {\'e}tica}{18}{section.2.3}\protected@file@percent }
\@writefile{toc}{\contentsline {section}{\numberline {2.4}Execu\IeC {\c c}\IeC {\~a}o das instru\IeC {\c c}\IeC {\~o}es}{18}{section.2.4}\protected@file@percent }
\newlabel{sec:exec_instrucoes}{{\M@TitleReference {2.4}{Execu\IeC {\c c}\IeC {\~a}o das instru\IeC {\c c}\IeC {\~o}es}}{18}{Execução das instruções}{section.2.4}{}}
\BKM@entry{id=23,dest={73656374696F6E2E322E35},srcline={69}}{417271756974657475726120646F20434553}
\@writefile{toc}{\contentsline {section}{\numberline {2.5}Arquitetura do CES}{19}{section.2.5}\protected@file@percent }
\BKM@entry{id=24,dest={73656374696F6E2E322E36},srcline={81}}{556E696461646520646520436F6E74726F6C65}
\@writefile{lof}{\contentsline {figure}{\numberline {1}{\ignorespaces Diagrama da arquitetura do CES}}{20}{figure.2.1}\protected@file@percent }
\newlabel{fig:diagrama}{{\M@TitleReference {1}{Fonte: Vasconcelos, Nelson Quilula (2008)}}{20}{Diagrama da arquitetura do CES}{figure.2.1}{}}
\@writefile{toc}{\contentsline {section}{\numberline {2.6}Unidade de Controle}{20}{section.2.6}\protected@file@percent }
\@writefile{lot}{\contentsline {table}{\numberline {1}{\ignorespaces Sinais de controle}}{21}{table.2.1}\protected@file@percent }
\newlabel{tab:sinais_controle}{{\M@TitleReference {1}{Fonte: Vasconcelos, Nelson Quilula (2008)}}{21}{Sinais de controle}{table.2.1}{}}
\@writefile{lot}{\contentsline {table}{\numberline {2}{\ignorespaces Express\IeC {\~o}es dos sinais de controle}}{22}{table.2.2}\protected@file@percent }
\newlabel{tab:exp_sinais_controle}{{\M@TitleReference {2}{Fonte: Vasconcelos, Nelson Quilula (2008)}}{22}{Expressões dos sinais de controle}{table.2.2}{}}
\@writefile{lof}{\contentsline {figure}{\numberline {2}{\ignorespaces Diagrama da Unidade de Controle}}{23}{figure.2.2}\protected@file@percent }
\newlabel{fig:diagrama_uc}{{\M@TitleReference {2}{Fonte: Vasconcelos, Nelson Quilula (2008)}}{23}{Diagrama da Unidade de Controle}{figure.2.2}{}}
\BKM@entry{id=25,dest={636861707465722E33},srcline={1}}{4D4F4449464943415C3330375C333235455320504152412041434F4D4F444152204F205041494E454C204520412050415241444120444F2050524F4345535341444F52}
\BKM@entry{id=26,dest={73656374696F6E2E332E31},srcline={4}}{536F627265206F207061696E656C20646F2073696D756C61646F72}
\@writefile{toc}{\setlength  {\cftchapterindent }{0em} \setlength  {\cftchapternumwidth }{\cftlastnumwidth }}
\@writefile{toc}{\contentsline {chapter}{\chapternumberline {3}\MakeTextUppercase  {MODIFICA\IeC {\c C}\IeC {\~O}ES PARA ACOMODAR O PAINEL E A PARADA DO PROCESSADOR}}{24}{chapter.3}\protected@file@percent }
\newlabel{chp:modificacoes}{{\M@TitleReference {3}{\MakeTextUppercase  {MODIFICA\IeC {\c C}\IeC {\~O}ES PARA ACOMODAR O PAINEL E A PARADA DO PROCESSADOR}}}{24}{MODIFICAÇÕES PARA ACOMODAR O PAINEL E A PARADA DO PROCESSADOR}{chapter.3}{}}
\@writefile{toc}{\contentsline {section}{\numberline {3.1}Sobre o painel do simulador}{24}{section.3.1}\protected@file@percent }
\@writefile{lof}{\contentsline {figure}{\numberline {3}{\ignorespaces Simuilador do CES}}{24}{figure.3.3}\protected@file@percent }
\newlabel{fig:simulador}{{\M@TitleReference {3}{Simuilador do CES}}{24}{Simuilador do CES}{figure.3.3}{}}
\BKM@entry{id=27,dest={73656374696F6E2E332E32},srcline={26}}{536F627265206F207061696E656C2070726F6A657461646F2070617261206F20434553}
\@writefile{toc}{\contentsline {section}{\numberline {3.2}Sobre o painel projetado para o CES}{25}{section.3.2}\protected@file@percent }
\@writefile{lof}{\contentsline {figure}{\numberline {4}{\ignorespaces Painel}}{25}{figure.3.4}\protected@file@percent }
\newlabel{fig:painel}{{\M@TitleReference {4}{Painel}}{25}{Painel}{figure.3.4}{}}
\BKM@entry{id=28,dest={73756273656374696F6E2E332E322E31},srcline={50}}{4469666572656E5C333437617320656E747265206F73207061696E5C3335316973}
\@writefile{lof}{\contentsline {figure}{\numberline {5}{\ignorespaces Chave utilizada no painel}}{26}{figure.3.5}\protected@file@percent }
\newlabel{fig:chave}{{\M@TitleReference {5}{Chave utilizada no painel}}{26}{Chave utilizada no painel}{figure.3.5}{}}
\@writefile{toc}{\contentsline {subsection}{\numberline {3.2.1}Diferen\IeC {\c c}as entre os pain\IeC {\'e}is}{26}{subsection.3.2.1}\protected@file@percent }
\BKM@entry{id=29,dest={73656374696F6E2E332E33},srcline={58}}{416C746572615C3334375C3336356573206E6120417271756974657475726120646F20434553}
\BKM@entry{id=30,dest={73656374696F6E2E332E34},srcline={68}}{412070617261646120646F2070726F6365737361646F72}
\@writefile{toc}{\contentsline {section}{\numberline {3.3}Altera\IeC {\c c}\IeC {\~o}es na Arquitetura do CES}{27}{section.3.3}\protected@file@percent }
\@writefile{toc}{\contentsline {section}{\numberline {3.4}A parada do processador}{27}{section.3.4}\protected@file@percent }
\BKM@entry{id=31,dest={73756273656374696F6E2E332E342E31},srcline={82}}{50736575646F20696E737472755C3334375C3334336F2064652070617274696461}
\@writefile{lof}{\contentsline {figure}{\numberline {6}{\ignorespaces Novo Arquitetura do CES}}{28}{figure.3.6}\protected@file@percent }
\newlabel{fig:nova_arquitetura}{{\M@TitleReference {6}{Novo Arquitetura do CES}}{28}{Novo Arquitetura do CES}{figure.3.6}{}}
\BKM@entry{id=32,dest={73656374696F6E2E332E35},srcline={89}}{416C746572615C3334375C3336356573206E6120556E696461646520646520436F6E74726F6C65}
\@writefile{toc}{\contentsline {subsection}{\numberline {3.4.1}Pseudo instru\IeC {\c c}\IeC {\~a}o de partida}{29}{subsection.3.4.1}\protected@file@percent }
\newlabel{subsec:pseudo_instrucao}{{\M@TitleReference {3.4.1}{Pseudo instru\IeC {\c c}\IeC {\~a}o de partida}}{29}{Pseudo instrução de partida}{subsection.3.4.1}{}}
\@writefile{toc}{\contentsline {section}{\numberline {3.5}Altera\IeC {\c c}\IeC {\~o}es na Unidade de Controle}{29}{section.3.5}\protected@file@percent }
\newlabel{sec:nova_uc}{{\M@TitleReference {3.5}{Altera\IeC {\c c}\IeC {\~o}es na Unidade de Controle}}{29}{Alterações na Unidade de Controle}{section.3.5}{}}
\BKM@entry{id=33,dest={73656374696F6E2E332E36},srcline={373}}{4F7574726173206D6F6469666963615C3334375C3336356573207265616C697A61646173206E6F20434553}
\BKM@entry{id=34,dest={73756273656374696F6E2E332E362E31},srcline={375}}{4F2062756666657220646F73204C454473}
\@writefile{lot}{\contentsline {table}{\numberline {3}{\ignorespaces Novas express\IeC {\~o}es dos sinais de controle}}{31}{table.3.3}\protected@file@percent }
\newlabel{tab:sinais_controle_modificados}{{\M@TitleReference {3}{Novas express\IeC {\~o}es dos sinais de controle}}{31}{Novas expressões dos sinais de controle}{table.3.3}{}}
\@writefile{lot}{\contentsline {table}{\numberline {4}{\ignorespaces Novos sinais de controle}}{31}{table.3.4}\protected@file@percent }
\newlabel{tab:novos_sinais_controle}{{\M@TitleReference {4}{Novos sinais de controle}}{31}{Novos sinais de controle}{table.3.4}{}}
\@writefile{lof}{\contentsline {figure}{\numberline {7}{\ignorespaces Novo diagrama da Unidade de Controle}}{32}{figure.3.7}\protected@file@percent }
\newlabel{fig:nova_uc}{{\M@TitleReference {7}{Novo diagrama da Unidade de Controle}}{32}{Novo diagrama da Unidade de Controle}{figure.3.7}{}}
\citation{url:ti_7404}
\BKM@entry{id=35,dest={73756273656374696F6E2E332E362E32},srcline={383}}{536F627265206F20636C6F636B20646F2070726F6365737361646F72}
\citation{url:datasheet_is61c256}
\citation{url:datasheet_is61c256}
\citation{url:ti_74173}
\@writefile{toc}{\contentsline {section}{\numberline {3.6}Outras modifica\IeC {\c c}\IeC {\~o}es realizadas no CES}{33}{section.3.6}\protected@file@percent }
\@writefile{toc}{\contentsline {subsection}{\numberline {3.6.1}O \emph  {buffer} dos \emph  {LEDs}}{33}{subsection.3.6.1}\protected@file@percent }
\@writefile{toc}{\contentsline {subsection}{\numberline {3.6.2}Sobre o \emph  {clock} do processador}{33}{subsection.3.6.2}\protected@file@percent }
\newlabel{subsec:clock_processador}{{\M@TitleReference {3.6.2}{Sobre o \emph  {clock} do processador}}{33}{Sobre o \emph {clock} do processador}{subsection.3.6.2}{}}
\BKM@entry{id=36,dest={73756273656374696F6E2E332E362E33},srcline={404}}{4465636F6469666963615C3334375C3334336F20646520456E646572655C3334376F}
\@writefile{lof}{\contentsline {figure}{\numberline {8}{\ignorespaces Formas de onda de um ciclo de escrita}}{34}{figure.3.8}\protected@file@percent }
\newlabel{fig:timing_memoria}{{\M@TitleReference {8}{Fonte: \cite  {url:datasheet_is61c256}}}{34}{Formas de onda de um ciclo de escrita}{figure.3.8}{}}
\@writefile{toc}{\contentsline {subsection}{\numberline {3.6.3}Decodifica\IeC {\c c}\IeC {\~a}o de Endere\IeC {\c c}o}{34}{subsection.3.6.3}\protected@file@percent }
\@writefile{lof}{\contentsline {figure}{\numberline {9}{\ignorespaces Diagrama de Decodifica\IeC {\c c}\IeC {\~a}o de Endere\IeC {\c c}os}}{35}{figure.3.9}\protected@file@percent }
\newlabel{fig:decodificacao_enderecos}{{\M@TitleReference {9}{Diagrama de Decodifica\IeC {\c c}\IeC {\~a}o de Endere\IeC {\c c}os}}{35}{Diagrama de Decodificação de Endereços}{figure.3.9}{}}
\BKM@entry{id=37,dest={636861707465722E34},srcline={1}}{44495649535C3330334F20454D20504C41434153}
\@writefile{toc}{\setlength  {\cftchapterindent }{0em} \setlength  {\cftchapternumwidth }{\cftlastnumwidth }}
\@writefile{toc}{\contentsline {chapter}{\chapternumberline {4}\MakeTextUppercase  {DIVIS\IeC {\~A}O EM PLACAS}}{36}{chapter.4}\protected@file@percent }
\newlabel{chp:placas}{{\M@TitleReference {4}{\MakeTextUppercase  {DIVIS\IeC {\~A}O EM PLACAS}}}{36}{DIVISÃO EM PLACAS}{chapter.4}{}}
\@writefile{lof}{\contentsline {figure}{\numberline {10}{\ignorespaces Distribui\IeC {\c c}\IeC {\~a}o das placas}}{36}{figure.4.10}\protected@file@percent }
\newlabel{fig:distribuicao_placas}{{\M@TitleReference {10}{Distribui\IeC {\c c}\IeC {\~a}o das placas}}{36}{Distribuição das placas}{figure.4.10}{}}
\@writefile{lof}{\contentsline {figure}{\numberline {11}{\ignorespaces Placa 1}}{38}{figure.4.11}\protected@file@percent }
\newlabel{fig:placa1}{{\M@TitleReference {11}{Placa 1}}{38}{Placa 1}{figure.4.11}{}}
\@writefile{lof}{\contentsline {figure}{\numberline {12}{\ignorespaces Placa 2}}{39}{figure.4.12}\protected@file@percent }
\newlabel{fig:placa2}{{\M@TitleReference {12}{Placa 2}}{39}{Placa 2}{figure.4.12}{}}
\@writefile{lof}{\contentsline {figure}{\numberline {13}{\ignorespaces Placa 3}}{40}{figure.4.13}\protected@file@percent }
\newlabel{fig:placa3}{{\M@TitleReference {13}{Placa 3}}{40}{Placa 3}{figure.4.13}{}}
\@writefile{lof}{\contentsline {figure}{\numberline {14}{\ignorespaces Placa 4}}{41}{figure.4.14}\protected@file@percent }
\newlabel{fig:placa4}{{\M@TitleReference {14}{Placa 4}}{41}{Placa 4}{figure.4.14}{}}
\BKM@entry{id=38,dest={636861707465722E35},srcline={1}}{4553434F4C484120444F204841524457415245}
\citation{url:niveis_tensao}
\@writefile{toc}{\setlength  {\cftchapterindent }{0em} \setlength  {\cftchapternumwidth }{\cftlastnumwidth }}
\@writefile{toc}{\contentsline {chapter}{\chapternumberline {5}\MakeTextUppercase  {ESCOLHA DO HARDWARE}}{42}{chapter.5}\protected@file@percent }
\newlabel{chp:hardware}{{\M@TitleReference {5}{\MakeTextUppercase  {ESCOLHA DO HARDWARE}}}{42}{ESCOLHA DO HARDWARE}{chapter.5}{}}
\@writefile{lot}{\contentsline {table}{\numberline {5}{\ignorespaces N\IeC {\'\i }veis de tens\IeC {\~a}o}}{42}{table.5.5}\protected@file@percent }
\newlabel{tab:niveis_tensao}{{\M@TitleReference {5}{N\IeC {\'\i }veis de tens\IeC {\~a}o}}{42}{Níveis de tensão}{table.5.5}{}}
\@writefile{lot}{\contentsline {table}{\numberline {6}{\ignorespaces CIs dos componentes}}{43}{table.5.6}\protected@file@percent }
\newlabel{tab:ics_dos_componentes}{{\M@TitleReference {6}{CIs dos componentes}}{43}{CIs dos componentes}{table.5.6}{}}
\BKM@entry{id=39,dest={636861707465722E36},srcline={1}}{4D4F4E544147454D20444F20434F4D50555441444F52}
\BKM@entry{id=40,dest={73656374696F6E2E362E31},srcline={8}}{436F6E65785C333635657320696E7465726E6173}
\BKM@entry{id=41,dest={73656374696F6E2E362E32},srcline={14}}{436F6E65785C33363565732065787465726E6173}
\@writefile{toc}{\setlength  {\cftchapterindent }{0em} \setlength  {\cftchapternumwidth }{\cftlastnumwidth }}
\@writefile{toc}{\contentsline {chapter}{\chapternumberline {6}\MakeTextUppercase  {MONTAGEM DO COMPUTADOR}}{44}{chapter.6}\protected@file@percent }
\newlabel{chp:montagem}{{\M@TitleReference {6}{\MakeTextUppercase  {MONTAGEM DO COMPUTADOR}}}{44}{MONTAGEM DO COMPUTADOR}{chapter.6}{}}
\@writefile{toc}{\contentsline {section}{\numberline {6.1}Conex\IeC {\~o}es internas}{44}{section.6.1}\protected@file@percent }
\citation{url:computerhope}
\citation{url:computerhope}
\BKM@entry{id=42,dest={73656374696F6E2E362E33},srcline={35}}{466F6E746520646520616C696D656E74615C3334375C3334336F}
\BKM@entry{id=43,dest={73656374696F6E2E362E34},srcline={41}}{526573756C7461646F2066696E616C}
\@writefile{toc}{\contentsline {section}{\numberline {6.2}Conex\IeC {\~o}es externas}{45}{section.6.2}\protected@file@percent }
\@writefile{lof}{\contentsline {figure}{\numberline {15}{\ignorespaces Cabo IDE}}{45}{figure.6.15}\protected@file@percent }
\newlabel{fig:cabo_ide}{{\M@TitleReference {15}{Fonte: \cite  {url:computerhope}}}{45}{Cabo IDE}{figure.6.15}{}}
\@writefile{toc}{\contentsline {section}{\numberline {6.3}Fonte de alimenta\IeC {\c c}\IeC {\~a}o}{45}{section.6.3}\protected@file@percent }
\@writefile{lof}{\contentsline {figure}{\numberline {16}{\ignorespaces Pino e cabo IDE}}{46}{figure.6.16}\protected@file@percent }
\newlabel{fig:ide_e_pino}{{\M@TitleReference {16}{Pino e cabo IDE}}{46}{Pino e cabo IDE}{figure.6.16}{}}
\@writefile{toc}{\contentsline {section}{\numberline {6.4}Resultado final}{46}{section.6.4}\protected@file@percent }
\@writefile{lof}{\contentsline {figure}{\numberline {17}{\ignorespaces Montagem final}}{46}{figure.6.17}\protected@file@percent }
\newlabel{fig:montagem_final}{{\M@TitleReference {17}{Montagem final}}{46}{Montagem final}{figure.6.17}{}}
\BKM@entry{id=44,dest={636861707465722E37},srcline={1}}{544553544553205245414C495A41444F53}
\@writefile{toc}{\setlength  {\cftchapterindent }{0em} \setlength  {\cftchapternumwidth }{\cftlastnumwidth }}
\@writefile{toc}{\contentsline {chapter}{\chapternumberline {7}\MakeTextUppercase  {TESTES REALIZADOS}}{47}{chapter.7}\protected@file@percent }
\newlabel{chp:testes}{{\M@TitleReference {7}{\MakeTextUppercase  {TESTES REALIZADOS}}}{47}{TESTES REALIZADOS}{chapter.7}{}}
\@writefile{lof}{\contentsline {figure}{\numberline {18}{\ignorespaces Custo relativo para corrigir uma falha}}{47}{figure.7.18}\protected@file@percent }
\newlabel{fig:custo_bug}{{\M@TitleReference {18}{Fonte: National Institute of Science and Technology (NIST)}}{47}{Custo relativo para corrigir uma falha}{figure.7.18}{}}
\citation{url:Atlassian}
\citation{url:ATmega2560}
\citation{url:ArduinoMegaPinout}
\citation{url:ArduinoMegaPinout}
\@writefile{lof}{\contentsline {figure}{\numberline {19}{\ignorespaces Pinos do Arduino Mega}}{49}{figure.7.19}\protected@file@percent }
\newlabel{fig:arduino_mega_pinout}{{\M@TitleReference {19}{Fonte: \cite  {url:ArduinoMegaPinout}}}{49}{Pinos do Arduino Mega}{figure.7.19}{}}
\BKM@entry{id=45,dest={73656374696F6E2E372E31},srcline={46}}{546573746520646120706C6163612031}
\@writefile{toc}{\contentsline {section}{\numberline {7.1}Teste da placa 1}{50}{section.7.1}\protected@file@percent }
\newlabel{sec:teste_placa_1}{{\M@TitleReference {7.1}{Teste da placa 1}}{50}{Teste da placa 1}{section.7.1}{}}
\BKM@entry{id=46,dest={73656374696F6E2E372E32},srcline={63}}{546573746520646120706C6163612032}
\BKM@entry{id=47,dest={73756273656374696F6E2E372E322E31},srcline={67}}{54657374652064652042442065204254}
\BKM@entry{id=48,dest={73756273656374696F6E2E372E322E32},srcline={78}}{5465737465206465204D452065205245}
\@writefile{toc}{\contentsline {section}{\numberline {7.2}Teste da placa 2}{51}{section.7.2}\protected@file@percent }
\@writefile{toc}{\contentsline {subsection}{\numberline {7.2.1}Teste de BD e BT}{51}{subsection.7.2.1}\protected@file@percent }
\newlabel{subsec:teste_bd_bt}{{\M@TitleReference {7.2.1}{Teste de BD e BT}}{51}{Teste de BD e BT}{subsection.7.2.1}{}}
\@writefile{toc}{\contentsline {subsection}{\numberline {7.2.2}Teste de ME e RE}{51}{subsection.7.2.2}\protected@file@percent }
\BKM@entry{id=49,dest={73756273656374696F6E2E372E322E33},srcline={88}}{5465737465206465204245}
\BKM@entry{id=50,dest={73656374696F6E2E372E33},srcline={94}}{546573746520646520696E74656772615C3334375C3334336F2064617320706C61636173203120652032}
\BKM@entry{id=51,dest={73756273656374696F6E2E372E332E31},srcline={101}}{54657374652064617320636861766573}
\@writefile{toc}{\contentsline {subsection}{\numberline {7.2.3}Teste de BE}{52}{subsection.7.2.3}\protected@file@percent }
\@writefile{toc}{\contentsline {section}{\numberline {7.3}Teste de integra\IeC {\c c}\IeC {\~a}o das placas 1 e 2}{52}{section.7.3}\protected@file@percent }
\newlabel{sec:teste_1_e_2}{{\M@TitleReference {7.3}{Teste de integra\IeC {\c c}\IeC {\~a}o das placas 1 e 2}}{52}{Teste de integração das placas 1 e 2}{section.7.3}{}}
\@writefile{toc}{\contentsline {subsection}{\numberline {7.3.1}Teste das chaves}{52}{subsection.7.3.1}\protected@file@percent }
\BKM@entry{id=52,dest={73756273656374696F6E2E372E332E32},srcline={111}}{546573746520646520696E6372656D656E746F206465205250}
\BKM@entry{id=53,dest={73756273656374696F6E2E372E332E33},srcline={115}}{5465737465206465205244}
\BKM@entry{id=54,dest={73756273656374696F6E2E372E332E34},srcline={119}}{5465737465206465205254}
\BKM@entry{id=55,dest={73656374696F6E2E372E34},srcline={123}}{546573746520646120706C6163612033}
\@writefile{toc}{\contentsline {subsection}{\numberline {7.3.2}Teste de incremento de RP}{53}{subsection.7.3.2}\protected@file@percent }
\@writefile{toc}{\contentsline {subsection}{\numberline {7.3.3}Teste de RD}{53}{subsection.7.3.3}\protected@file@percent }
\@writefile{toc}{\contentsline {subsection}{\numberline {7.3.4}Teste de RT}{53}{subsection.7.3.4}\protected@file@percent }
\@writefile{toc}{\contentsline {section}{\numberline {7.4}Teste da placa 3}{53}{section.7.4}\protected@file@percent }
\BKM@entry{id=56,dest={73656374696F6E2E372E35},srcline={137}}{4175735C3335326E63696120646F20746573746520646120706C6163612034}
\@writefile{toc}{\contentsline {section}{\numberline {7.5}Aus\IeC {\^e}ncia do teste da placa 4}{54}{section.7.5}\protected@file@percent }
\BKM@entry{id=57,dest={636861707465722E38},srcline={1}}{46455252414D454E544120444520444953504F53495C3330375C3330334F20444F5320434952435549544F5320494E5445475241444F53}
\citation{url:Breadplacer}
\BKM@entry{id=58,dest={73656374696F6E2E382E31},srcline={14}}{53696E7461786520646F206172717569766F206963735C3133376C697374}
\@writefile{toc}{\setlength  {\cftchapterindent }{0em} \setlength  {\cftchapternumwidth }{\cftlastnumwidth }}
\@writefile{toc}{\contentsline {chapter}{\chapternumberline {8}\MakeTextUppercase  {FERRAMENTA DE DISPOSI\IeC {\c C}\IeC {\~A}O DOS CIRCUITOS INTEGRADOS}}{55}{chapter.8}\protected@file@percent }
\newlabel{chp:breadplacer}{{\M@TitleReference {8}{\MakeTextUppercase  {FERRAMENTA DE DISPOSI\IeC {\c C}\IeC {\~A}O DOS CIRCUITOS INTEGRADOS}}}{55}{FERRAMENTA DE DISPOSIÇÃO DOS CIRCUITOS INTEGRADOS}{chapter.8}{}}
\@writefile{toc}{\contentsline {section}{\numberline {8.1}Sintaxe do arquivo \emph  {ics\_list}}{55}{section.8.1}\protected@file@percent }
\newlabel{cod:icslist}{{\M@TitleReference {8.1}{Sintaxe do arquivo \emph  {ics\_list}}}{55}{Exemplo \emph {ics\_list}}{lstlisting.8.1}{}}
\@writefile{lol}{\contentsline {lstlisting}{\numberline {8.1}Exemplo \emph  {ics\_list}}{55}{lstlisting.8.1}\protected@file@percent }
\BKM@entry{id=59,dest={73656374696F6E2E382E32},srcline={30}}{5574696C697A616E646F20612066657272616D656E7461}
\BKM@entry{id=60,dest={73656374696F6E2E382E33},srcline={52}}{466F726D61746F732064652073615C3335356461}
\@writefile{toc}{\contentsline {section}{\numberline {8.2}Utilizando a ferramenta}{57}{section.8.2}\protected@file@percent }
\@writefile{toc}{\contentsline {section}{\numberline {8.3}Formatos de sa\IeC {\'\i }da}{57}{section.8.3}\protected@file@percent }
\BKM@entry{id=61,dest={636861707465722E39},srcline={1}}{554D204D4F4E5441444F522045585452454D414D454E54452053494D504C4553}
\BKM@entry{id=62,dest={73656374696F6E2E392E31},srcline={4}}{536F627265206F206D6F6E7461646F72}
\citation{url:MES}
\@writefile{toc}{\setlength  {\cftchapterindent }{0em} \setlength  {\cftchapternumwidth }{\cftlastnumwidth }}
\@writefile{toc}{\contentsline {chapter}{\chapternumberline {9}\MakeTextUppercase  {UM MONTADOR EXTREMAMENTE SIMPLES}}{58}{chapter.9}\protected@file@percent }
\newlabel{chp:mes}{{\M@TitleReference {9}{\MakeTextUppercase  {UM MONTADOR EXTREMAMENTE SIMPLES}}}{58}{UM MONTADOR EXTREMAMENTE SIMPLES}{chapter.9}{}}
\@writefile{toc}{\contentsline {section}{\numberline {9.1}Sobre o montador}{58}{section.9.1}\protected@file@percent }
\newlabel{cod:asm1}{{\M@TitleReference {9.1}{Sobre o montador}}{59}{Exemplo de código de montagem}{lstlisting.9.1}{}}
\@writefile{lol}{\contentsline {lstlisting}{\numberline {9.1}Exemplo de c\IeC {\'o}digo de montagem}{59}{lstlisting.9.1}\protected@file@percent }
\BKM@entry{id=63,dest={73656374696F6E2E392E32},srcline={67}}{496E74657266616365206461206C696E686120646520636F6D616E646F}
\newlabel{cod:asm3}{{\M@TitleReference {9.2}{Sobre o montador}}{62}{Exemplo de macro}{lstlisting.9.2}{}}
\@writefile{lol}{\contentsline {lstlisting}{\numberline {9.2}Exemplo de macro}{62}{lstlisting.9.2}\protected@file@percent }
\newlabel{cod:asm2}{{\M@TitleReference {9.3}{Sobre o montador}}{62}{Exemplo de macro}{lstlisting.9.3}{}}
\@writefile{lol}{\contentsline {lstlisting}{\numberline {9.3}Exemplo de macro}{62}{lstlisting.9.3}\protected@file@percent }
\citation{url:intel_hex}
\citation{url:SimCES}
\BKM@entry{id=64,dest={73656374696F6E2E392E33},srcline={101}}{4F706572615C3334375C3334336F20646F206D6F6E7461646F72}
\@writefile{toc}{\contentsline {section}{\numberline {9.2}Interface da linha de comando}{63}{section.9.2}\protected@file@percent }
\@writefile{toc}{\contentsline {section}{\numberline {9.3}Opera\IeC {\c c}\IeC {\~a}o do montador}{64}{section.9.3}\protected@file@percent }
\BKM@entry{id=65,dest={636861707465722E3130},srcline={1}}{434F4E434C55535C3330334F}
\BKM@entry{id=66,dest={73656374696F6E2E31302E31},srcline={4}}{5649535C3330334F20474552414C}
\BKM@entry{id=67,dest={73656374696F6E2E31302E32},srcline={12}}{4449464943554C444144455320454E434F4E545241444153}
\@writefile{toc}{\setlength  {\cftchapterindent }{0em} \setlength  {\cftchapternumwidth }{\cftlastnumwidth }}
\@writefile{toc}{\contentsline {chapter}{\chapternumberline {10}\MakeTextUppercase  {CONCLUS\IeC {\~A}O}}{65}{chapter.10}\protected@file@percent }
\newlabel{chp:conclusao}{{\M@TitleReference {10}{\MakeTextUppercase  {CONCLUS\IeC {\~A}O}}}{65}{CONCLUSÃO}{chapter.10}{}}
\@writefile{toc}{\contentsline {section}{\numberline {10.1}VIS\IeC {\~A}O GERAL}{65}{section.10.1}\protected@file@percent }
\@writefile{toc}{\contentsline {section}{\numberline {10.2}DIFICULDADES ENCONTRADAS}{65}{section.10.2}\protected@file@percent }
\BKM@entry{id=68,dest={73656374696F6E2E31302E33},srcline={20}}{54524142414C484F532046555455524F53}
\BKM@entry{id=69,dest={73756273656374696F6E2E31302E332E31},srcline={22}}{496E7465726661636520646520456E747261646120652053615C3335356461}
\citation{url:CES}
\BKM@entry{id=70,dest={73756273656374696F6E2E31302E332E32},srcline={30}}{506C61636120646520436972637569746F20496D70726573736F}
\@writefile{toc}{\contentsline {section}{\numberline {10.3}TRABALHOS FUTUROS}{66}{section.10.3}\protected@file@percent }
\@writefile{toc}{\contentsline {subsection}{\numberline {10.3.1}Interface de Entrada e Sa\IeC {\'\i }da}{66}{subsection.10.3.1}\protected@file@percent }
\@writefile{toc}{\contentsline {subsection}{\numberline {10.3.2}Placa de Circuito Impresso}{66}{subsection.10.3.2}\protected@file@percent }
\BKM@entry{id=71,dest={73656374696F6E2E31302E34},srcline={40}}{4F4253455256415C3330375C33323545532046494E414953}
\bibdata{abntex2-options,referencias.bib}
\@writefile{toc}{\contentsline {section}{\numberline {10.4}OBSERVA\IeC {\c C}\IeC {\~O}ES FINAIS}{67}{section.10.4}\protected@file@percent }
\@writefile{toc}{\vspace  {\cftbeforechapterskip }}
\BKM@entry{id=72,dest={73656374696F6E2A2E3131},srcline={3}}{52656665725C3335326E63696173}
\bibcite{url:ArduinoMegaPinout}{Arduino 2017 (Acessado em mai. 2018)}
\bibciteEXPL{url:ArduinoMegaPinout}{Arduino}
\bibciteIMPL{url:ArduinoMegaPinout}{ARDUINO}
\bibciteYEAR{url:ArduinoMegaPinout}{2017 (Acessado em mai. 2018)}
\bibcite{url:ATmega2560}{Atmel 2014 (Acessado em mai. 2018)}
\bibciteEXPL{url:ATmega2560}{Atmel}
\bibciteIMPL{url:ATmega2560}{ATMEL}
\bibciteYEAR{url:ATmega2560}{2014 (Acessado em mai. 2018)}
\bibcite{url:computerhope}{Computerhope 2017 (Acessado em 10 mar. 2019)}
\bibciteEXPL{url:computerhope}{Computerhope}
\bibciteIMPL{url:computerhope}{COMPUTERHOPE}
\bibciteYEAR{url:computerhope}{2017 (Acessado em 10 mar. 2019)}
\bibcite{url:DreamCatcher}{Constantino 2017 (Acessado em abr. 2018)}
\bibciteEXPL{url:DreamCatcher}{Constantino}
\bibciteIMPL{url:DreamCatcher}{CONSTANTINO}
\bibciteYEAR{url:DreamCatcher}{2017 (Acessado em abr. 2018)}
\bibcite{url:DreamCatcherGit}{Constantino 2018 (Acessado em abr. 2018)}
\bibciteEXPL{url:DreamCatcherGit}{Constantino}
\bibciteIMPL{url:DreamCatcherGit}{CONSTANTINO}
\bibciteYEAR{url:DreamCatcherGit}{2018 (Acessado em abr. 2018)}
\bibcite{url:BenEater}{Eater 2016 (Acessado em mar. 2018)}
\bibciteEXPL{url:BenEater}{Eater}
\bibciteIMPL{url:BenEater}{EATER}
\bibciteYEAR{url:BenEater}{2016 (Acessado em mar. 2018)}
\bibcite{url:intel_hex}{Intel 1988 (Acessado em 23 jun. 2019)}
\bibciteEXPL{url:intel_hex}{Intel}
\bibciteIMPL{url:intel_hex}{INTEL}
\bibciteYEAR{url:intel_hex}{1988 (Acessado em 23 jun. 2019)}
\bibcite{url:ti_74173}{Intruments 1999 (Acessado em 6 jul. 2019)}
\bibciteEXPL{url:ti_74173}{Intruments}
\bibciteIMPL{url:ti_74173}{INTRUMENTS}
\bibciteYEAR{url:ti_74173}{1999 (Acessado em 6 jul. 2019)}
\bibcite{url:ti_7404}{Intruments 2004 (Acessado em 23 jun. 2019)}
\bibciteEXPL{url:ti_7404}{Intruments}
\bibciteIMPL{url:ti_7404}{INTRUMENTS}
\bibciteYEAR{url:ti_7404}{2004 (Acessado em 23 jun. 2019)}
\bibcite{url:Gigatron}{Kervinck e Belgers 2017 (Acessado em mar. 2018)}
\bibciteEXPL{url:Gigatron}{Kervinck e Belgers}
\bibciteIMPL{url:Gigatron}{KERVINCK; BELGERS}
\bibciteYEAR{url:Gigatron}{2017 (Acessado em mar. 2018)}
\bibcite{url:niveis_tensao}{Media (Acessado em jan. 2019)}
\bibciteEXPL{url:niveis_tensao}{Media}
\bibciteIMPL{url:niveis_tensao}{MEDIA}
\bibciteYEAR{url:niveis_tensao}{(Acessado em jan. 2019)}
\bibcite{url:Breadplacer}{Pires 2018 (Acessado em fev. 2019)}
\bibciteEXPL{url:Breadplacer}{Pires}
\bibciteIMPL{url:Breadplacer}{PIRES}
\bibciteYEAR{url:Breadplacer}{2018 (Acessado em fev. 2019)a}
\bibcite{url:MES}{Pires 2018 (Acessado em fev. 2019)}
\bibciteEXPL{url:MES}{Pires}
\bibciteIMPL{url:MES}{PIRES}
\bibciteYEAR{url:MES}{2018 (Acessado em fev. 2019)b}
\bibcite{url:Atlassian}{Pittet (Acessado em 6 fev. 2019)}
\bibciteEXPL{url:Atlassian}{Pittet}
\bibciteIMPL{url:Atlassian}{PITTET}
\bibciteYEAR{url:Atlassian}{(Acessado em 6 fev. 2019)}
\bibcite{url:datasheet_is61c256}{Solution 2009 (Acessado em 6 jul. 2019)}
\bibciteEXPL{url:datasheet_is61c256}{Solution}
\bibciteIMPL{url:datasheet_is61c256}{SOLUTION}
\bibciteYEAR{url:datasheet_is61c256}{2009 (Acessado em 6 jul. 2019)}
\bibcite{url:CES}{Vasconcelos 2008 (Acessado em 5 fev. 2019)}
\bibciteEXPL{url:CES}{Vasconcelos}
\bibciteIMPL{url:CES}{VASCONCELOS}
\bibciteYEAR{url:CES}{2008 (Acessado em 5 fev. 2019)}
\@writefile{toc}{\setlength  {\cftchapterindent }{\cftlastnumwidth } \setlength  {\cftchapternumwidth }{2em}}
\@writefile{toc}{\contentsline {chapter}{\MakeTextUppercase  {Refer\^encias}}{68}{section*.11}\protected@file@percent }
\bibcite{url:SimCES}{Vasconcelos 2008 (Acessado em 6 fev. 2019)}
\bibciteEXPL{url:SimCES}{Vasconcelos}
\bibciteIMPL{url:SimCES}{VASCONCELOS}
\bibciteYEAR{url:SimCES}{2008 (Acessado em 6 fev. 2019)}
\BKM@entry{id=73,dest={617070656E6469782E41},srcline={2}}{54657374652064617320506C61636173}
\@switch{AP\^ENDICE} 
\@writefile{toc}{\setlength  {\cftchapterindent }{0em} \setlength  {\cftchapternumwidth }{\cftlastnumwidth }}
\@writefile{toc}{\setlength  {\cftchapterindent }{\cftlastnumwidth } \setlength  {\cftchapternumwidth }{2em}}
\@writefile{toc}{\cftinsert {A}}
\@writefile{toc}{\contentsline {appendix}{\chapternumberline {A}\MakeTextUppercase  {\textnormal  {Teste das Placas}}}{70}{appendix.A}\protected@file@percent }
\newlabel{appendix:tests}{{\M@TitleReference {A}{\MakeTextUppercase  {\textnormal  {Teste das Placas}}}}{70}{\textnormal {Teste das Placas}}{appendix.A}{}}
\newlabel{cod:test_placa1}{{\M@TitleReference {A.1}{OBSERVA\IeC {\c C}\IeC {\~O}ES FINAIS}}{70}{Placa 1}{lstlisting.A.1}{}}
\@writefile{lol}{\contentsline {lstlisting}{\numberline {A.1}Placa 1}{70}{lstlisting.A.1}\protected@file@percent }
\newlabel{cod:test_placa2_BD_BT}{{\M@TitleReference {A.2}{OBSERVA\IeC {\c C}\IeC {\~O}ES FINAIS}}{82}{Placa 2: BD e BT}{lstlisting.A.2}{}}
\@writefile{lol}{\contentsline {lstlisting}{\numberline {A.2}Placa 2: BD e BT}{82}{lstlisting.A.2}\protected@file@percent }
\newlabel{cod:test_placa2_ME_RE}{{\M@TitleReference {A.3}{OBSERVA\IeC {\c C}\IeC {\~O}ES FINAIS}}{88}{Placa 2: ME e RE}{lstlisting.A.3}{}}
\@writefile{lol}{\contentsline {lstlisting}{\numberline {A.3}Placa 2: ME e RE}{88}{lstlisting.A.3}\protected@file@percent }
\newlabel{cod:test_placa2_BE}{{\M@TitleReference {A.4}{OBSERVA\IeC {\c C}\IeC {\~O}ES FINAIS}}{93}{Placa 2: BE}{lstlisting.A.4}{}}
\@writefile{lol}{\contentsline {lstlisting}{\numberline {A.4}Placa 2: BE}{93}{lstlisting.A.4}\protected@file@percent }
\newlabel{cod:test_placa1_e_2}{{\M@TitleReference {A.5}{OBSERVA\IeC {\c C}\IeC {\~O}ES FINAIS}}{97}{Placa 1 e 2}{lstlisting.A.5}{}}
\@writefile{lol}{\contentsline {lstlisting}{\numberline {A.5}Placa 1 e 2}{97}{lstlisting.A.5}\protected@file@percent }
\newlabel{cod:test_placa3}{{\M@TitleReference {A.6}{OBSERVA\IeC {\c C}\IeC {\~O}ES FINAIS}}{110}{Placa 3}{lstlisting.A.6}{}}
\@writefile{lol}{\contentsline {lstlisting}{\numberline {A.6}Placa 3}{110}{lstlisting.A.6}\protected@file@percent }
\newlabel{LastPage}{{}{119}{}{page.119}{}}
\xdef\lastpage@lastpage{119}
\xdef\lastpage@lastpageHy{119}
\bibstyle{abntex2-alf}
\memsetcounter{lastsheet}{121}
\memsetcounter{lastpage}{119}
