\relax 
\providecommand\hyper@newdestlabel[2]{}
\catcode `"\active 
\providecommand\HyperFirstAtBeginDocument{\AtBeginDocument}
\HyperFirstAtBeginDocument{\ifx\hyper@anchor\@undefined
\global\let\oldcontentsline\contentsline
\gdef\contentsline#1#2#3#4{\oldcontentsline{#1}{#2}{#3}}
\global\let\oldnewlabel\newlabel
\gdef\newlabel#1#2{\newlabelxx{#1}#2}
\gdef\newlabelxx#1#2#3#4#5#6{\oldnewlabel{#1}{{#2}{#3}}}
\AtEndDocument{\ifx\hyper@anchor\@undefined
\let\contentsline\oldcontentsline
\let\newlabel\oldnewlabel
\fi}
\fi}
\global\let\hyper@last\relax 
\gdef\HyperFirstAtBeginDocument#1{#1}
\providecommand\HyField@AuxAddToFields[1]{}
\providecommand\HyField@AuxAddToCoFields[2]{}
\babel@aux{brazilian}{}
\@writefile{toc}{\contentsline {chapter}{Agradecimentos}{i}{chapter*.1}}
\@writefile{toc}{\contentsline {chapter}{Resumo}{ii}{chapter*.1}}
\@writefile{toc}{\contentsline {chapter}{Abstract}{iii}{chapter*.1}}
\@writefile{toc}{\contentsline {chapter}{Lista de Figuras}{iv}{chapter*.1}}
\@writefile{toc}{\contentsline {chapter}{Lista de Tabelas}{v}{chapter*.2}}
\@writefile{toc}{\contentsline {chapter}{Lista de C{\'o}digos}{vi}{chapter*.3}}
\@writefile{toc}{\contentsline {chapter}{Lista de Abreviaturas e Siglas}{vii}{chapter*.5}}
\@writefile{toc}{\contentsline {chapter}{Lista de S{\'i}mbolos}{viii}{chapter*.6}}
\@writefile{toc}{\contentsline {chapter}{\numberline {1}Introdu\IeC {\c c}\IeC {\~a}o}{1}{chapter.1}}
\@writefile{lof}{\addvspace {10\p@ }}
\@writefile{lot}{\addvspace {10\p@ }}
\newlabel{chp:LABEL_CHP_1}{{1}{1}{Introdução}{chapter.1}{}}
\@writefile{toc}{\contentsline {section}{\numberline {1.1}Motiva\IeC {\c c}\IeC {\~a}o e objetivos}{1}{section.1.1}}
\newlabel{sec:LABEL_CHP_1_SEC_A}{{1.1}{1}{Motivação e objetivos}{section.1.1}{}}
\@writefile{toc}{\contentsline {section}{\numberline {1.2}Trabalhos relacionados}{2}{section.1.2}}
\newlabel{sec:LABEL_CHP_1_SEC_B}{{1.2}{2}{Trabalhos relacionados}{section.1.2}{}}
\@writefile{toc}{\contentsline {subsection}{\numberline {1.2.1}Gigatron}{2}{subsection.1.2.1}}
\newlabel{sec:LABEL_CHP_1_SEC_C}{{1.2.1}{2}{Gigatron}{subsection.1.2.1}{}}
\@writefile{toc}{\contentsline {subsubsection}{\numberline {1.2.1.1}Ben Eater}{2}{subsubsection.1.2.1.1}}
\newlabel{sec:LABEL_CHP_1_SEC_D}{{1.2.1.1}{2}{Ben Eater}{subsubsection.1.2.1.1}{}}
\@writefile{toc}{\contentsline {subsubsection}{\numberline {1.2.1.2}dreamcatcher}{3}{subsubsection.1.2.1.2}}
\newlabel{sec:LABEL_CHP_1_SEC_E}{{1.2.1.2}{3}{dreamcatcher}{subsubsection.1.2.1.2}{}}
\@writefile{toc}{\contentsline {section}{\numberline {1.3}Estrutura da monografia}{3}{section.1.3}}
\newlabel{sec:LABEL_CHP_1_SEC_F}{{1.3}{3}{Estrutura da monografia}{section.1.3}{}}
\@writefile{toc}{\contentsline {chapter}{\numberline {2}Lorem ipsum dolor sit amet}{4}{chapter.2}}
\@writefile{lof}{\addvspace {10\p@ }}
\@writefile{lot}{\addvspace {10\p@ }}
\newlabel{chp:LABEL_CHP_2}{{2}{4}{Lorem ipsum dolor sit amet}{chapter.2}{}}
\@writefile{toc}{\contentsline {section}{\numberline {2.1}Tables}{4}{section.2.1}}
\newlabel{sec:LABEL_CHP_2_SEC_A}{{2.1}{4}{Tables}{section.2.1}{}}
\@writefile{lot}{\contentsline {table}{\numberline {Tabela\nobreakspace  2.1:}{\ignorespaces This table shows some data}}{4}{section.2.1}}
\newlabel{tab:LABEL_TAB_1}{{2.1}{4}{Tables}{section.2.1}{}}
\@writefile{toc}{\contentsline {section}{\numberline {2.2}Images}{4}{section.2.2}}
\newlabel{sec:LABEL_CHP_2_SEC_B}{{2.2}{4}{Images}{section.2.2}{}}
\@writefile{toc}{\contentsline {section}{\numberline {2.3}Equations}{4}{section.2.3}}
\newlabel{sec:LABEL_CHP_2_SEC_C}{{2.3}{4}{Equations}{section.2.3}{}}
\newlabel{eq:LABEL_EQ_1}{{2.1}{4}{Equations}{equation.2.3.1}{}}
\@writefile{lof}{\contentsline {figure}{\numberline {Figura\nobreakspace  2.1:}{\ignorespaces Chick}}{5}{section.2.2}}
\newlabel{fig:LABEL_FIG_1}{{2.1}{5}{Images}{section.2.2}{}}
\@writefile{toc}{\contentsline {section}{\numberline {2.4}Listings}{5}{section.2.4}}
\newlabel{sec:LABEL_CHP_2_SEC_D}{{2.4}{5}{Listings}{section.2.4}{}}
\newlabel{alg:LABEL_CODE_1}{{2.1}{6}{C}{lstlisting.2.1}{}}
\@writefile{lol}{\contentsline {lstlisting}{\numberline {2.1}C}{6}{lstlisting.2.1}}
\newlabel{alg:LABEL_CODE_2}{{2.2}{7}{Java}{lstlisting.2.2}{}}
\@writefile{lol}{\contentsline {lstlisting}{\numberline {2.2}Java}{7}{lstlisting.2.2}}
\citation{art:REF_ART_1}
\@writefile{toc}{\contentsline {section}{\numberline {2.5}References}{8}{section.2.5}}
\newlabel{sec:LABEL_CHP_2_SEC_E}{{2.5}{8}{References}{section.2.5}{}}
\bibstyle{abnt}
\bibdata{elementos-postextuais/referencias}
\@writefile{toc}{\contentsline {chapter}{Refer{\^e}ncias}{9}{section.2.5}}
\@writefile{toc}{\contentsline {chapter}{\numberline {A}Lorem ipsum dolor sit amet}{9}{appendix.A}}
\@writefile{lof}{\addvspace {10\p@ }}
\@writefile{lot}{\addvspace {10\p@ }}
\newlabel{chp:LABEL_APP_1}{{A}{9}{Lorem ipsum dolor sit amet}{appendix.A}{}}
