\babel@toc {brazilian}{}
\contentsline {chapter}{Agradecimentos}{i}{chapter*.1}
\contentsline {chapter}{Resumo}{ii}{chapter*.1}
\contentsline {chapter}{Abstract}{iii}{chapter*.1}
\contentsline {chapter}{Lista de Figuras}{iv}{chapter*.1}
\contentsline {chapter}{Lista de Tabelas}{v}{chapter*.2}
\contentsline {chapter}{Lista de C{\'o}digos}{vi}{chapter*.3}
\contentsline {chapter}{Lista de Abreviaturas e Siglas}{vii}{chapter*.5}
\contentsline {chapter}{Lista de S{\'i}mbolos}{viii}{chapter*.6}
\contentsline {chapter}{\numberline {1}Introdu\IeC {\c c}\IeC {\~a}o}{1}{chapter.1}
\contentsline {section}{\numberline {1.1}Motiva\IeC {\c c}\IeC {\~a}o e objetivos}{1}{section.1.1}
\contentsline {section}{\numberline {1.2}Trabalhos relacionados}{2}{section.1.2}
\contentsline {subsection}{\numberline {1.2.1}Gigatron}{2}{subsection.1.2.1}
\contentsline {subsubsection}{\numberline {1.2.1.1}Ben Eater}{2}{subsubsection.1.2.1.1}
\contentsline {subsubsection}{\numberline {1.2.1.2}dreamcatcher}{3}{subsubsection.1.2.1.2}
\contentsline {section}{\numberline {1.3}Estrutura da monografia}{3}{section.1.3}
\contentsline {chapter}{\numberline {2}Lorem ipsum dolor sit amet}{4}{chapter.2}
\contentsline {section}{\numberline {2.1}Tables}{4}{section.2.1}
\contentsline {section}{\numberline {2.2}Images}{4}{section.2.2}
\contentsline {section}{\numberline {2.3}Equations}{4}{section.2.3}
\contentsline {section}{\numberline {2.4}Listings}{5}{section.2.4}
\contentsline {section}{\numberline {2.5}References}{8}{section.2.5}
\contentsline {chapter}{Refer{\^e}ncias}{9}{section.2.5}
\contentsline {chapter}{\numberline {A}Lorem ipsum dolor sit amet}{9}{appendix.A}
